0.07967772437093495 0.3875984098513737
0.12977005475508177 0.4015837730307304
0.14542435411771545 0.3747543148757084
0.08342182896323674 0.36870270459635807
0.20315308088149206 0.31584911720359254
0.03247479533565942 0.3933970240706718
0.12073520551357332 0.36222670760134035
0.15907420458998422 0.3631749901994658
0.12011821733985183 0.33749677841730596
0.23823173194546649 0.37778905248111755
0.07706863352389635 0.37490361054520427
0.13421619867790577 0.3351967881698632
0.10420775671924015 0.3556501636395717
0.15416772877256785 0.32205186211629977
0.08991522236344113 0.39233536966674887
0.08722352006274223 0.3880291815630111
0.1717082105729971 0.39002981826910416
0.1800363614092174 0.40559717591257627
0.0975868846049242 0.3524931094901582
0.1545007959039253 0.3881543382971771
0.16811243093938466 0.3171179008374289
0.15554610514644232 0.42400863139064365
0.1416022761463342 0.35456416539703245
0.12902693498096704 0.3689924645401436
0.0 0.3629958069620869
0.12674579305733502 0.3604223218147541
0.06998421448181213 0.34266062648430295
0.2183311574569679 0.37559614608577685
0.08335399950773056 0.3793782380566005
0.08713131538718606 0.5
0.20865372353675943 0.3726342257293137
0.15473004204970098 0.40290496191181413
0.03313218571685199 0.3483571558281552
0.16537270348551641 0.43807434291220304
0.08845785182681348 0.3698959228058121
0.05547971009071499 0.3702878375526737
0.1299320524250795 0.35163155711686067
0.13971782524909307 0.35834425254287594
0.1489615567663022 0.38943160396587706
0.1796248315011293 0.3466718770858607
0.0858798076144134 0.3547211772390694
0.1284749833007952 0.35069127174833986
0.13149866006585478 0.38774624896240406
0.16770848684233922 0.39223197507228136
0.17215543040713388 0.4126452867113092
0.10488519354789971 0.409853799162551
0.1187658425255422 0.342787574180113
0.10217031663266762 0.4012333238854612
0.15245362462955458 0.3368325227179097
0.11297785463365197 0.40221988209379567
0.1521193130876258 0.3377000407324789
0.14841610877070835 0.3939990103548969
0.15098894650560865 0.3945817916446544
0.07647927051842454 0.3560552661775406
0.044559528299904505 0.3247875003269156
0.12441561173665618 0.36491918784703314
0.20461426050140652 0.3948626028600496
0.11594389784188831 0.3575308681449281
0.1635940227365561 0.38132135572576636
0.1144412413196244 0.43833326743090667
0.16405339496068622 0.39793961727978483
0.1544105433999185 0.317979496887749
0.07439288466975554 0.36882783169838435
0.15362719644841283 0.37478729755419316
0.1257634995405809 0.38140986613737565
0.11930658962274661 0.3816740736059198
0.11697847306848247 0.3925647813575075
0.11478075625141022 0.37907084680035535
0.03528493110202169 0.38305362962645717
0.1257736448877558 0.39161698694144376
0.11834044238415198 0.34110662693349275
0.18669628011380887 0.3763434051956402
0.15917393076075154 0.3890965172524729
0.1966911716711806 0.3538630417606747
0.09386128228056434 0.3303840491130649
0.0627017791785286 0.34388083504199485
0.12255084163511465 0.35449873628937767
0.09840920969348149 0.3740353926464883
0.10015150921869505 0.31217612030581743
0.17723551532229873 0.35347439942898184
0.11977630769400723 0.38659148383484215
0.11021484957275265 0.3718312865432922
0.06776103778428345 0.3262544324617747
0.12633513796520301 0.3749110304850915
0.08897641782168456 0.35625492621369936
0.17386446198319716 0.3935814222200457
0.15417089036301762 0.37596454522986594
0.12012370844768744 0.36931651799400245
0.09145007797393828 0.37595572846726355
0.16049908484311984 0.3417191818428032
0.11338592910096773 0.45214231642751523
0.10280617386976833 0.3564245530949096
0.08426066703053899 0.3056246926986079
0.1595278203327182 0.33644260171449014
0.19143171182689808 0.36941249754072975
0.11101760275381616 0.34803812874405987
0.15544285098658406 0.37004297864901975
0.105193618058907 0.3463149193335883
0.1368193507209885 0.36802018113942064
0.08145955425557452 0.39651862791284836
0.24543440978511133 0.3290016349693191
0.0958431451709045 0.37115901370472104
0.10723522561491314 0.3782867559237295
0.10629249410963396 0.40354994691495705
0.2008966526741129 0.3791966038100636
0.1443675814743415 0.4092409249070511
0.16271418313825178 0.3589218166915221
0.0941404827177804 0.4040517522128993
0.08948305823806034 0.33170793702038603
0.20005424273097216 0.3760273685351761
0.14510827512078986 0.32500600879412633
0.11095943304323432 0.372629255583106
0.11817929622287486 0.37878349958249874
0.16331291734118877 0.33885387941566436
0.16818169947925182 0.3530673737550552
0.06457135872224166 0.3162001438449248
0.12996774835684982 0.3909406963309826
0.14300577542793394 0.35749620721230735
0.06282774166663377 0.33176686378941866
0.15895497925690352 0.41575598589202656
0.15866893717378733 0.3752520623591089
0.1294754492547576 0.38023302036627576
0.15748884879927802 0.36941124982881923
0.15724776853699804 0.37899020556331275
0.08024389544525101 0.3773905472982155
0.08541758753908629 0.8450518317567852
0.17023391303169622 0.9082333704134209
0.12804728557873876 0.829315397190605
0.11197843538702348 0.914194833587618
0.12158334471297903 0.8332747598115428
0.1433493264873379 0.8551505535167914
0.12232506896354843 0.9235195975159842
0.15852519768424278 0.9887933696181389
0.11110918767293163 0.8827162207137383
0.060830600456019165 0.8888718687918887
0.19490959816539538 0.8402438652845279
0.19169858179609703 0.9801678011431095
0.03740183061674991 0.8784818984187218
0.14853833357259377 0.9065631182356407
0.18916284946666254 0.9217326573881652
0.12295470203512396 0.8209006669488196
0.12740499446413134 0.9391384738143184
0.0898346352463473 0.8059113976634821
0.11969733584056413 0.9152982849189985
0.14012345392085326 0.850934899896527
0.1071700749565737 0.900452597921542
0.11431250278541547 0.8900106044227295
0.11104993229364497 0.8019223254608816
0.05548984306378671 0.8871392750003189
0.1364431615900913 0.8787385702526761
0.15277825319876218 0.86626908102587
0.15451925709466238 0.8550886869703553
0.11430424903847428 0.8480229717437536
0.10647078827983647 0.8402245063778238
0.13185340079572244 0.857339401102433
0.15790494583793013 0.8478591858649113
0.18645859785570768 0.8652047949503541
0.13499901102369663 0.7843011098206183
0.13191757416549818 0.851381781052754
0.13402191680127917 0.8804338002871528
0.1451382770446213 0.934798178121218
0.13402955515175094 0.933931098707057
0.10180698939715757 0.9122552286451309
0.11617903370147072 0.8468837710973726
0.16423409822983126 0.8694827326919353
0.0766502212787189 0.8526082148765755
0.19097828219069135 0.9397229419053258
0.18137661879695824 0.8641913921573899
0.1276744635521411 0.8605242147303082
0.1271299416713743 0.8862172058278138
0.1353378489077291 0.9621884598929424
0.23763232758715686 0.866916020850168
0.09493693114776391 0.830556119644702
0.08688612132771355 0.9566870870202457
0.13851166331982911 0.8793962127377108
0.07446216305164158 0.8763421937820355
0.1749733217321653 0.8559244603881255
0.09929823851543863 0.8371608293028143
0.08848796662605116 0.9509953028608965
0.06520838242059562 0.8036996788098095
0.11360472974118378 0.9192236557642921
0.0686495202503658 0.8613160208010606
0.1516503358077365 0.8521182692429661
0.17671044281211906 0.8717892557207462
0.16403960074131185 0.8625879403812182
0.1470340662435997 0.8289129733665559
0.12776113315395782 0.8625851049051678
0.05491315469794657 0.9822614526193112
0.12987552527846008 0.8672005483873895
0.16453514883710352 0.9783925812054235
0.08552155570770165 0.8630954327357443
0.06787157615083798 0.8068684220386482
0.11383262270937426 0.9014583844240666
0.10687352192649166 0.8911485681502936
0.08967597153362443 0.931332604237778
0.15741261059362716 0.839232756489211
0.13337405104223152 0.9156979132945761
0.08660306240836887 0.8679877617672883
0.09424638146624537 0.9058411894330906
0.16687853960064436 0.8694161255652557
0.1492819761324107 1.0
0.15690421681228545 0.950279300817691
0.1286067513906551 0.8795052921148059
0.15841811296221428 0.8741245417306269
0.10458557031567249 0.9077722453598241
0.09779601305647993 0.8996428435311358
0.09365218777760623 0.8624709945289345
0.09922272892401002 0.8527963373660231
0.06280486015876355 0.8104608954633594
0.09762387746385073 0.9474545412244265
0.1000695117855321 0.8075596084219917
0.25 0.9273037320308055
0.07710684873526139 0.9063666923756254
0.15677227651001402 0.8471311785360514
0.09123172265446268 0.9006768842408901
0.17317637660280205 0.9083150171116385
0.1105720134605128 0.9407353253812601
0.10356774581601261 0.8974947751861805
0.15003895719817445 0.8709521966820403
0.1345268288247071 0.8406241783823118
0.2049974632402683 0.8523318611005546
0.0982934668273939 0.8438788678043561
0.17190036888384275 0.893625229654904
0.08747209279476272 0.902768567648461
0.1386802434466496 0.9414332815922114
0.08951406097216709 0.9300332656539161
0.09147233438838173 0.8696907607569572
0.16278940755843707 0.9309136552547739
0.10141101444204066 0.8997132086269782
0.14974284945188898 0.869693124695591
0.06982645741310672 0.8610937098692214
0.10006119130073171 0.8485156680605412
0.15872462779582266 0.8585532119659611
0.10638889551987277 0.8583487555936045
0.18836707004864645 0.8207694209093931
0.1503983042858405 0.8569762226202673
0.17626284268644207 0.8256464094966893
0.15462682545275439 0.8294969536730421
0.09073520647222152 0.9368607977853328
0.17787902604532307 0.886942822748149
0.17563643341863155 0.8652157542648532
0.07564234771564946 0.867000744382087
0.14340838112919707 0.797288910269703
0.12868292834300227 0.9442608926872601
0.03259119674772892 0.8312564106264347
0.11038924452291624 0.8483149001218812
0.12430667387964997 0.8998225775976358
0.07445085266319401 0.9103238290603538
0.20314986518520664 0.8781436847483896
0.13033718270744007 0.7844827203462486
0.37787544942325113 0.17655923725727024
0.34217613836310495 0.09952882428764923
0.40083685555308307 0.11426006158425861
0.355390951002423 0.14758448563243232
0.4333206519432639 0.07725443311171666
0.31615661708475595 0.12667728890501154
0.3888385500270971 0.12945420714612005
0.4889683187200264 0.09173084037941345
0.37910944602268093 0.08934537861092579
0.40782064687119535 0.06243704856415658
0.4085358334570756 0.1004550874870076
0.3722403763870539 0.16936872301129666
0.44603948165243035 0.13094468245395385
0.3416221781384848 0.0978402875322749
0.3639947216741241 0.10749981481773564
0.38451047373603875 0.13001834396759643
0.35009472445953166 0.1627678368543507
0.4060846945578823 0.1586144795137206
0.3601544265577258 0.06904180130281871
0.39740999746061656 0.12949135367231343
0.38915681998699186 0.14483972223887737
0.397465795060196 0.07856095359614801
0.40190621933805937 0.23346689189720915
0.3105008518117041 0.1186340761090562
0.38419516511980206 0.13877068631350295
0.39512413770897714 0.09780259155258078
0.3263302774120587 0.15328282661856332
0.4193198416797284 0.11539323839952628
0.35205870596257266 0.0981465530193049
0.43122497602748866 0.12855620275663335
0.3905325540921348 0.12245543109581865
0.3584261738994468 0.14060527185848823
0.3831712642317344 0.14791511718959532
0.3470158342323568 0.20394557884309844
0.39204738745022866 0.005922495324340277
0.3730538485759679 0.15330159162098675
0.43928906047771243 0.03126800336983404
0.3831668732479221 0.1425729014311152
0.3693990202760177 0.11064994391690494
0.3659393681413829 0.17696624388253368
0.2987116707743658 0.15834758551818148
0.37433889523566655 0.09847865065010242
0.3539217257345681 0.11991741380168226
0.3840436692695905 0.06037376391889958
0.4317165462420028 0.1401993482833441
0.40213444622101074 0.15124620860261992
0.38485759284385246 0.03676231587693109
0.34479562034841543 0.20939660731780507
0.4056479937845823 0.12292421652842148
0.3894842854483127 0.18265974573737434
0.38606918947524427 0.1446411684134476
0.3968887700182022 0.1082681002289141
0.3686436865549868 0.2353263990996662
0.3731864054771214 0.11928804261541189
0.44521103591683536 0.11920811772220741
0.29238468932815753 0.10666922598945867
0.43776503991033233 0.10922173522759515
0.38683198439686683 0.10247083515760294
0.4316476420042986 0.10170566251725612
0.35094344094867774 0.09450915093814473
0.25 0.11725469589614104
0.36603896767282945 0.21685393234827588
0.364101831821969 0.11631387202976631
0.3753936858381778 0.12919664076678658
0.33652318678579785 0.08313368309002732
0.33371499637721735 0.16344027255970334
0.3736261679649239 0.09670107605399642
0.31596843061179464 0.25
0.3396430004695382 0.1261601068921708
0.41333934132131334 0.19307099561369356
0.37559873809069394 0.19164006401372302
0.3798345454188926 0.11361409099240374
0.3390566980998996 0.22054347655209397
0.41430620497502146 0.08825972489089728
0.40922339853669965 0.13125783954768117
0.31054876093466166 0.16670605629697477
0.42417375183052614 0.11168086561824041
0.36521979599231436 0.1279649410020611
0.38830701776753673 0.14584431607367274
0.35602347996627937 0.1272273751857692
0.3604373498566655 0.12029875995265256
0.3881331430999589 0.13515841619316932
0.3928163197243672 0.17606310099812164
0.40326090113270824 0.09950618866152296
0.38744918655899957 0.1764833495204604
0.3647542664946246 0.15894113996349452
0.3875560727998614 0.16965625234944337
0.34947157702304593 0.1008424825674366
0.35067148750562055 0.09728161438145298
0.38848787899028303 0.11331818520763996
0.34174257296836585 0.0797665037800871
0.4290380589956702 0.16139765358488398
0.34841609338102897 0.11638148611074828
0.4630681833789656 0.09816638743546184
0.3742811316136171 0.15593303739857975
0.3790790719362226 0.19017277775085184
0.34672302025240054 0.1877083272047463
0.3883160950212501 0.11691748689260892
0.3226550889662899 0.1789613245389503
0.3607714255204122 0.11523883497127765
0.3763697467846999 0.06844059279510328
0.3723157423747868 0.14506101330058216
0.37127162097594574 0.13233589733435275
0.41839392653961927 0.09239707604162128
0.33101128503100635 0.08662361775603301
0.3947764801462445 0.15211506732583605
0.334015829781817 0.17339657209435116
0.3905085630595701 0.0774358409031024
0.3435731855538791 0.08652538312774774
0.3886326364460131 0.08874414698865057
0.3441913544816055 0.11988768893130854
0.39332460708623224 0.16141204340608267
0.3694014229839698 0.12375645346303459
0.4934981167907477 0.17904011370107795
0.4620186472617676 0.11859347674195572
0.402968333024878 0.09944300313036908
0.3578221969539707 0.1757350598504599
0.37378591623069013 0.12859647712258115
0.36703614196742373 0.14076648537575367
0.32814111151159203 0.07542131272828334
0.4302029387541736 0.18510062212007625
0.31563637125615523 0.056012359571892004
0.3715166942580793 0.12214912499292438
0.4017277404892635 0.13680171110944123
0.3545806658333977 0.10249204941409838
0.4587493788121143 0.5989836165584268
0.41039572190203183 0.5959538250977164
0.42504792314718653 0.6141219312759786
0.4113088421054522 0.6780178435004738
0.3698493045981945 0.633963971842713
0.39003611098837654 0.5863221316263457
0.35349734552535134 0.6267222933147267
0.37080029646430823 0.6149137005643257
0.3685006835364591 0.6467185479005789
0.3591105783108288 0.6582976000183901
0.4272099215701974 0.710248591743911
0.46566264226098497 0.5868276543237075
0.38117342378242836 0.5837659594318112
0.4288988774119701 0.6268561914824227
0.30974835750243634 0.5987692325426329
0.3271399180552935 0.6872013097242484
0.32113184848006454 0.6270716351618072
0.29210548411071324 0.65688543528706
0.3663150590914373 0.6449956926109842
0.361909245867631 0.6827042576602991
0.3376422072032499 0.6484838530952423
0.32040345758007927 0.6046084544867625
0.48185754472737935 0.6203879132970143
0.3583157555030625 0.6644328388370334
0.30727988235139053 0.6768558735382633
0.3776573572181293 0.6381850323127953
0.4013112230001192 0.5905611886437983
0.3584451811280181 0.626626711596856
0.4345284814929576 0.5804385817858443
0.3099648915585189 0.6126108839536998
0.364772011871935 0.6247936975467696
0.378951133845947 0.6467130616209527
0.35719670274415455 0.6459498765367877
0.37441090857366854 0.621452020870269
0.4705580224916893 0.581015074017206
0.39710522388615505 0.6166596312352097
0.2700953524252395 0.5882098797206511
0.34838585293746016 0.5748916148076127
0.366214564317641 0.5829543917303869
0.43539850504842187 0.6730751922013217
0.3687957783584378 0.5807134101196513
0.2966088464323362 0.5938976055643531
0.37164516372757744 0.674149728992667
0.33789717536768415 0.6591170878262687
0.4546703955207406 0.5779314707799066
0.4280933728448963 0.6518010186752479
0.31209541781677025 0.6081451861032893
0.4492903503159373 0.5866071666081992
0.3647759747172811 0.5961848216562184
0.3911029441231584 0.5758009508327372
0.390200819524839 0.5816605114829373
0.3972679674976629 0.5736955103471156
0.3476892673298689 0.5860127161800598
0.4904702248307152 0.6014911857969962
0.43497423476234137 0.6564340546411128
0.3596500580115987 0.717721426408777
0.4143574549993273 0.6526520726065865
0.41310173972066383 0.6990496589216265
0.3395307282753566 0.654844632872531
0.38427178059618755 0.580313083298264
0.39658551579405543 0.6178259578095389
0.33695034779666744 0.6266781263746095
0.3953853381884176 0.6821769407616013
0.4024309145564499 0.6432821533986378
0.40010717214128594 0.61213153735495
0.3326659784032037 0.6111750828199689
0.4134565242893528 0.6314478470869361
0.3095951855695114 0.5296209276726771
0.29598190931626017 0.6614542561039702
0.36233086264828274 0.6247592082155018
0.4154170642695376 0.6370747266772274
0.4485512121513452 0.6850775116790225
0.3420897568522626 0.5
0.3879781153134548 0.6580430125856189
0.36426603313591654 0.6274017715126093
0.30214681191509984 0.6145942877247828
0.32607569064084296 0.5339937214399322
0.4497018717368268 0.5829165315099611
0.4088987525579725 0.6529858387533756
0.3764180523404091 0.6302197459255856
0.4388827419642167 0.677070053541338
0.32763843394758124 0.6297945167559476
0.48608396831762174 0.5979891409572956
0.4330701241207096 0.6414368377629629
0.3747415715181479 0.6152292615766161
0.34977536471478377 0.5993246320315238
0.31829880951910294 0.5711967109284306
0.3559176763986601 0.6306160752265516
0.38173664575033095 0.6974487133694761
0.32598151998937885 0.6181077202489113
0.3710363992990183 0.6597243601971319
0.4083853310395067 0.621669648334028
0.37987283746874795 0.6927011940860444
0.43979409916147527 0.6249618355732063
0.3271331167502377 0.6063660455372817
0.3381372305380118 0.6022447585104609
0.38454200469563826 0.5680371691019456
0.3357673138836347 0.6736282843310508
0.447464973369034 0.6535136542423023
0.42177834222423616 0.6009674421961912
0.3997730556550069 0.6133364663247962
0.3649356426213202 0.5836095950476243
0.25 0.6210242135507973
0.33758569816489314 0.6704908998140304
0.3771314045700964 0.5981715896623966
0.37438736162873537 0.6206964332847191
0.3864597817641825 0.6399066074417642
0.32427782046455544 0.6725505625245652
0.3536671929778376 0.6988946351933153
0.3655522951891388 0.618625565451784
0.41119393955396527 0.6257045754476098
0.4190652466136344 0.6561975628403609
0.3628237050717956 0.6816271624729664
0.4359375528784988 0.6575213877253507
0.3965015442158795 0.6064778672396007
0.3524786419439052 0.6210568829614113
0.3409146451230245 0.6455396141533195
0.37938160286296574 0.603330238845683
0.3793945240518354 0.6354150636711304
0.39598568667144707 0.6373029104106781
0.43355928623004164 0.5921294293872477
0.31482278762055466 0.5968565962713522
0.33208154150424546 0.6385831327003253
0.35959620344442 0.5991350983819046
0.3573148691958571 0.6136593896048431
0.6718656211391435 0.3877559879082509
0.6811230315056527 0.45192596325651957
0.6342060787433602 0.33833877432036663
0.6058006905951012 0.3933736130418781
0.5949453182419986 0.35589241508650366
0.5951069494558355 0.3778166912551269
0.5997720439439921 0.33131550109971675
0.6590765517822864 0.3547344835127842
0.5520275430151533 0.38022955331434405
0.6225003998747559 0.3663406520202144
0.6139947520239146 0.42674824991295995
0.6244445472943292 0.37874646589473
0.575716159743222 0.33923037718899696
0.6051313452381645 0.4044553483360869
0.6483155139874721 0.3310370426680303
0.6571539874367855 0.47719064258515875
0.6375591814366395 0.3852841050253953
0.5949958380429538 0.35305497911510575
0.629341047356469 0.40617324408976624
0.6349053719399157 0.35555254649627355
0.6904264081618371 0.38019025530092637
0.576382863818196 0.4215136032526334
0.6196134340733942 0.42414178072305975
0.6046312228133663 0.3399975092353333
0.7001775972815271 0.3722021486335796
0.6126432162034807 0.35073965012855335
0.6809774675051761 0.303160531939144
0.6134805376887832 0.34884149464997755
0.6744634052858636 0.3966688703390883
0.6863190480214636 0.47078013739684677
0.6652000349757282 0.3842218103744476
0.6820909918939358 0.31356870557044836
0.6833985363824724 0.42498694237302265
0.6839827026340043 0.37720551806668334
0.6266832012100844 0.33674697946994064
0.5711849886500558 0.38719842825995077
0.5853820007403321 0.40175483536795753
0.5997872485376811 0.32003298825366144
0.678656471280629 0.33265165201790475
0.6154267690592563 0.37759073167094565
0.6772189258480033 0.41969499083940887
0.6671707261139717 0.40088246941322825
0.7011265168389123 0.40725770046383214
0.6336956704689967 0.3662007037031716
0.6362169667624111 0.43893666946348303
0.6202665569978558 0.5
0.6481293849199298 0.3933806943655008
0.5965018498536302 0.3614281415055027
0.6128971157426006 0.3558822204006885
0.6204674377735756 0.38556396188900227
0.6455206132086024 0.3496903014370106
0.6505197462877174 0.42004036053556
0.670740276104425 0.37293899743690373
0.629454569970065 0.35509266407672835
0.5176616967157662 0.32987508859133713
0.7000533268171206 0.35041913856352735
0.6484577250918145 0.4076547218112142
0.611506329012612 0.3898423621603306
0.6714152114329063 0.27848127060633693
0.6155440794120804 0.40919478417393756
0.6143998417425846 0.32094858907644275
0.627962930760281 0.37119727214837894
0.6596867754198962 0.39976704886562586
0.5481867668138194 0.3473668757035056
0.6387598795647039 0.33582156885571424
0.7218112465867562 0.3759887870295894
0.6045615826738333 0.35565269797465343
0.75 0.3486011476464029
0.5853406786748229 0.35850606377198446
0.6295338885017987 0.3700693651268931
0.6315165572283831 0.35638752842241195
0.5846285926777433 0.3844458858379243
0.6938463693236117 0.32827863745330965
0.5996449112682875 0.364262019920801
0.6442316544389362 0.395639768612319
0.6822611117425685 0.3448593247905067
0.6646048089249179 0.4182776555417637
0.6025561080347618 0.4193664437243613
0.6013467290738985 0.36270428152227047
0.5214181289438157 0.4045059193428583
0.6688796957796205 0.3279612360079698
0.5618566862177279 0.4305202550702232
0.5937259342136668 0.3357365403880247
0.6937881667085485 0.39805024137375444
0.6202383916058799 0.3529979791928325
0.6454603720269813 0.4167646892423568
0.6126919148734128 0.3672093055573812
0.6062210949912954 0.34667780292823275
0.6674833144184107 0.3450958412291006
0.6010268694718295 0.4504528248890087
0.6509056359409513 0.31706664904160586
0.6681555358385305 0.4218588975824956
0.68838504913997 0.349893003239162
0.6422499743685738 0.38653985251545664
0.5805914112425019 0.3583136410212995
0.6582063750175015 0.486064259383455
0.6972942338601389 0.4136518520345961
0.6012482242765665 0.3933597542792913
0.5981495407832419 0.33557395686117375
0.6530829406069959 0.4360362415871897
0.6930462428979047 0.363787949070024
0.5809653666279699 0.4492640667329052
0.529889857815528 0.42143280981253933
0.6766395388955172 0.4507932094892037
0.7305275638771318 0.3219803682135837
0.643225966725093 0.340989142045353
0.6385058457454417 0.41556158767131507
0.6824588023051645 0.45359054849090674
0.6892153833605965 0.3959949226969375
0.6161502191108914 0.43122890911488376
0.6537507636945593 0.38462551217221325
0.6674634564693391 0.3745754763157903
0.6540035567009838 0.3931589567661844
0.5677641830669791 0.3224322472897524
0.5872070718232633 0.3808241782034617
0.6434529074872835 0.3794119010694897
0.6406508910075972 0.34573465283189114
0.6478350310032328 0.3769785906095881
0.6019095164781509 0.3342795431134215
0.6379361435410136 0.3305184326251218
0.63711961536259 0.34570953904801155
0.6375032922977477 0.3582074973530038
0.6268825390688526 0.41284035694885374
0.6189586231565489 0.44258238670440947
0.6479021288816355 0.33317192331327045
0.6304485244890351 0.8208526081422955
0.6395410982732398 0.9342944039146998
0.6791906845498074 0.970849471194741
0.6347795200654549 0.8676790718240339
0.5731711294345702 0.8676466926797393
0.6110025219233899 0.7665089278234214
0.6482945492633747 0.8991855442838733
0.7229696884953948 0.9432370477362806
0.6338733683267929 0.9397005475949085
0.5893640725060431 0.8115844034836491
0.6646015665179293 0.8748371928764758
0.5993780580481388 0.8991832484690644
0.6768276394238794 0.7850352504516614
0.6988611726792398 0.9046425644897315
0.6830853942654105 0.8331233251004577
0.5851249699518932 0.961564393549193
0.6116723611326613 0.8224652662325724
0.605627920159709 0.8635645440051668
0.6338054153681641 0.8065542166584448
0.575922454084006 0.889673776149288
0.6009425280392389 0.9008530575145779
0.5936417969561629 0.7890625881426203
0.6921195318513336 0.8549059452991316
0.589330035873059 0.8241266020262029
0.5819711767925441 0.8430887900883014
0.6624483960818162 0.8784077515310222
0.5551472032145433 0.8856273448653241
0.6747091378515725 0.8077009061998918
0.5556123217256669 0.8056777308513443
0.6941411219586133 0.8954135467648869
0.6152993330248162 0.9230333401394175
0.6032963675328321 0.9032706661606889
0.6029287496617466 0.8924651395008143
0.6290486049239038 0.8780106319885705
0.6346125832225821 0.8656390292438961
0.6686795896029549 0.8172552846053189
0.6303328180253807 0.8854687470602602
0.5943059890156153 0.8721201943196167
0.6351305240027347 0.8748123719713454
0.5560249952719641 0.8674443942804716
0.6480291970195089 0.9513540905304448
0.6067462494662624 0.8129020998136214
0.6270988152967473 0.8965928171178893
0.5870931062008109 0.7991897302755568
0.6399031219227727 0.8607833751860444
0.589858481480397 0.873980307324588
0.6377953840181808 0.8519732558532662
0.6044251516451233 0.8015082588423339
0.6505181474452854 0.8035095562496052
0.6695773789149841 0.806567503454719
0.6014238014800146 0.9413206948641901
0.5923772795993311 0.8945043067667205
0.6100324424646391 0.9074870694376919
0.6931151259849809 0.8977235044874331
0.579615608385475 0.8428989254705382
0.6399331750873614 0.8346537242103262
0.5402953978023994 0.8049075438307972
0.5244085912267056 0.8409478988155715
0.5742151576741759 0.7945028121166164
0.6782152732998887 0.8504127586392225
0.5873481888736651 0.8541536055705448
0.6493214133983783 0.8089551599928009
0.6330873106916368 0.9438154299195949
0.6169039537180919 0.8378817920449055
0.6608435163898025 0.813348506324045
0.6510417458207077 0.9718475113157368
0.5833270054119549 0.9341744609532902
0.5781683784963043 0.8510969370369044
0.5991244167865047 0.943253325646539
0.6669636333690656 0.793139643348595
0.6115147132982438 0.9336523991666239
0.6026291384826448 0.9058314309424718
0.6291515004203548 0.9143605381324884
0.6415681365276221 0.8779769259706618
0.5435602420700978 0.8417994711145288
0.6666145115182815 0.9114181359701072
0.5580240097777707 0.9720070919471238
0.6433660540954954 0.8309122165169986
0.6421270108888769 0.828371058381113
0.5857285084568081 0.8729330293599984
0.5605206762183854 0.8498178608216198
0.6188944172929121 0.8606804503745987
0.6015964777489645 0.8601289991471407
0.6989105581670169 0.9023003748804312
0.6453296304221446 0.8686073792739002
0.602163116810913 0.9729279150319341
0.5940299956263362 0.8994348903940187
0.6944240536386235 0.8512235759926267
0.6432329686309198 0.8978614431580407
0.6433857308351253 0.9536347602093489
0.6620066486537611 0.878228180927153
0.6045071515614049 0.8351715986144205
0.6709410329381553 0.9277903844886708
0.7057786623929405 0.75
0.6396791723484138 0.9381545635385955
0.6474015152094361 0.8785077593086905
0.6386466147999476 0.868650700727326
0.6573339301238638 0.9064872617813262
0.6340106723939445 0.8541828145288117
0.6210186919415662 0.7810992364324896
0.6741944965410308 0.8821970137164175
0.5988444780731239 0.8636214153675805
0.5895064234914918 0.8697526488377489
0.7149802668889031 0.8399935235859626
0.6440736126360724 0.9144398635086122
0.6286198362617267 0.8824841259250731
0.5 0.879666000678712
0.6383244982165341 0.8075149482975245
0.6822934103993612 0.9230689195374088
0.648737672930741 0.8667348652355896
0.536788037283992 0.8775855539726163
0.6734908425297885 0.7896109384497587
0.6174300122809151 0.9195387841963722
0.7266918132184126 0.7962933871357469
0.6281348975584373 0.8998807963676055
0.5787177498637235 0.8302464280270164
0.6333583712958041 0.8491640150616421
0.7198524043242033 0.7722821988997113
0.6384100536225742 0.8833157390497389
0.6021223991475201 0.9380778449290931
0.5964037130695787 0.9325993968161791
0.6912112496386336 0.8478315137319256
0.6517842200968732 0.9259823775946568
0.5853853582197186 0.9173590164281746
0.5416604110135372 0.9418028216105951
0.874910836841077 0.13255147216618832
0.9481767194476828 0.12657642324326437
0.8429203981275797 0.12170698470887849
0.8626493688814503 0.08802553343521205
0.8740130229911072 0.13902136365753234
0.9168060302034923 0.1341884568587567
0.9168289549053164 0.22686699700615082
0.9129989625161267 0.1481105061181548
0.9694717076969869 0.028385870935840093
0.924230668467448 0.07490925946292008
0.8020932218696764 0.11307145004418327
0.8810654546660963 0.07955195433677228
0.7792031823950626 0.07408045052734095
0.8372671808454537 0.12515399301815186
0.8617173165318158 0.1356514052563421
0.8990832998382235 0.17721969940128018
0.9099856680661786 0.12769418204442085
0.8763354370992869 0.10233729398979358
0.869255286059613 0.046928637777035515
0.8488666703040088 0.19722451856855805
0.9230772735230454 0.04225293236466397
0.7571147558413343 0.10569089693476463
0.8226868416736162 0.17466436581952108
0.8826791470729711 0.08869334488182734
0.7627484299381598 0.19604976320838072
0.8278537319255899 0.16651550464514492
0.8964623802236756 0.08569528315392742
0.8203008493503107 0.13951207643447971
0.8789050902965102 0.13748048763210274
0.8760826893468017 0.1399025887535701
0.8721245684401093 0.18294605855568408
0.8879669948713724 0.031719937802256765
0.8932215031184423 0.1606286617655001
0.9460196405616358 0.11831883727913284
0.8923964342319978 0.15657042608342345
0.849024845173928 0.06810024370771459
0.8974696617423125 0.14435603015499696
0.7918966273364527 0.12005699527193649
0.8678877781434029 0.10677067872213214
0.9287133826562604 0.12213824373313756
0.8040011760110343 0.25
0.8508978805500801 0.050380892302005695
0.8493289320076064 0.09476869417330494
0.8972959673092548 0.060205841734883
0.9249315729168267 0.06617833435491366
0.8432364820157764 0.0710713259854263
0.9020081933661147 0.06428437833016193
0.8289943739272382 0.09494328461625992
0.913886473241755 0.1860846701252446
0.8933532460007756 0.12876391315788824
0.9312721216396342 0.1350845438831597
0.8791295246574911 0.08305193753818914
0.9057071022236307 0.10501350849327253
0.8471545160279417 0.16889148710591495
0.8352701330671035 0.12069916106285658
0.8662052160592979 0.09882140234414544
0.8426149640883298 0.18012984845869803
0.8229746047919441 0.15576526666193075
0.8948984167248322 0.13989002744719534
0.8119631700067922 0.11098148674757287
0.8901203220249742 0.21091624858544383
0.8336428528927603 0.14141346599020072
0.8711451216426007 0.054526329064866666
0.9431000904497846 0.12972044943914765
0.949158704104017 0.17491523764297617
0.872443288165142 0.08107642481560612
0.8719554930253782 0.16621439558547219
0.75 0.06077269617243321
0.8648040177508577 0.057957222979417924
0.7955543123690922 0.09634744589123573
0.848731348225084 0.179763825146259
0.8175304902001536 0.10612317833746496
0.8855822223396788 0.08711767129395337
0.9299206064178873 0.19859005600011623
0.9202058280724419 0.04691242837114604
0.919298657184713 0.07055985078392285
0.7715858860760876 0.1316015264236442
0.9267180152681721 0.17568911598836043
0.9157040505612621 0.12340153656713748
0.8361826035741144 0.12428888726904185
0.8694720676951977 0.23402601049202926
0.8603950013894502 0.09485557272457217
0.803971359628395 0.16052033178856537
0.874492449057267 0.16257401068703148
0.8482679236807604 0.15067726240910506
0.8084011389879223 0.13972221692097844
0.903522497940399 0.2012707511014411
0.8224968249105793 0.0837842527458999
0.8664567077324903 0.07140198080177401
0.9172059424556541 0.1349753349808649
0.8928497439615606 0.05561511208945144
0.8960483929179437 0.16856017299130707
0.8061926671101811 0.07858288309554332
0.8862124865946799 0.18981534819639248
0.8317803992537047 0.16266319773575444
0.9027760363674998 0.13339837794522638
0.9262382168075223 0.03484935931378032
0.9263411533959618 0.13917413106304968
0.8650200121736427 0.18136943873402295
0.8070090004890967 0.19819948481299432
0.8711600398996265 0.11274696747600002
0.8703532512706766 0.153800650384227
0.9007298823475594 0.07948651984072272
0.8979250628986521 0.10519862030330429
0.9041283377164849 0.02736115173612219
0.7872275540695718 0.14432381270469774
0.866976686998788 0.09910046821839495
0.9027634289104957 0.1394264538844611
0.8133996710635233 0.11665791931711439
0.9390851413830322 0.13316802286085044
0.8317018203237723 0.12964231214875796
0.8226221253023874 0.06717508033036593
0.8669792791122102 0.067817489527683
0.8718562316365704 0.1121759835538945
0.9416011096076697 0.11774600092905227
0.841422241625362 0.18754533775345783
0.939476303423245 0.12817066507067773
0.8658013797632198 0.1659617410182656
0.8292427249825429 0.1815540309795135
0.8395085192784923 0.13413555634180968
0.854286051409896 0.14496004798218623
0.8313103114158036 0.07228985894747192
0.8597642146052743 0.09785757402779134
0.9412099286251802 0.14961476865311443
0.8838910827124645 0.13472216761714662
0.8722591868721213 0.5623002238984719
0.8937154944723362 0.6766783206681038
0.8861414765563408 0.6314383487702646
0.9568746829225173 0.6441022687363966
0.8630938736630855 0.5942251889048997
0.8830594183990891 0.6752798217893896
0.853877009221128 0.5911906714967304
0.7779149057367684 0.6681639315819405
0.8877044618546334 0.6589142486217298
0.8414072689052938 0.6476797912650424
0.8828359489762321 0.633273546201345
0.7841279379939445 0.6229111429562506
0.8653239537488457 0.614593992800365
0.8728595454443336 0.5476444122271757
0.8647331115251704 0.5861022362557063
0.9090896038220468 0.6612831470449826
0.8989236588141102 0.649140841182254
0.8805284520444434 0.62303014278069
0.8728488505611921 0.6095500152588441
0.9662074097495279 0.6435208768709785
0.8455726018335701 0.5396214087310391
0.8807725002966629 0.6474315411565186
0.8759280513984915 0.6369778297527589
0.8854204280640399 0.6964909979077416
0.8950922481172683 0.646995782882778
0.8364643975481498 0.570106326453146
0.9066240656650529 0.625093090906254
0.8365353235910632 0.6967246142021929
0.9591773760787896 0.564795458177334
0.8844113081411463 0.7024333520858222
0.865519353260416 0.6521763894439379
0.9311127276214566 0.6553032596941419
0.9004201842881133 0.6420033314094987
0.9399218065283103 0.6906280120901875
0.8712172051003553 0.6096044803469441
0.7807799722928217 0.646926266261781
0.7843067230872354 0.6619775495049786
0.9391028851921445 0.7392128107871117
0.8491324755611859 0.6178222328462485
0.8218540354436652 0.5620742319335381
0.8473295869126095 0.6148800374347068
0.9010368515306727 0.6248242492476042
0.8546690981382589 0.5825409665774087
0.8563225267324829 0.5833379080916503
0.8185763910800855 0.5782234201200929
0.8392039409034847 0.6904357286576778
0.8763999942506839 0.6099677220028761
0.8524990679037374 0.7267219840020464
0.9424824165389686 0.6875535357920108
0.8539043705944973 0.7052736726033779
0.8805580137129746 0.5408660980853056
0.9001775756085694 0.6552700967319005
0.9282019625956134 0.657450620636476
0.8862773383029581 0.5753626174271528
1.0 0.5760545808978386
0.9176687346709161 0.5585632942272443
0.8272378370471474 0.6455660255242244
0.9227055516416538 0.6048049172461994
0.9254883953924714 0.5743489181631678
0.7797596849889266 0.5931892503511252
0.9808272455957533 0.6658798667275085
0.907779111096714 0.6127544350701098
0.8992956734435597 0.6400133266774406
0.8156762651524325 0.6021139895428734
0.8412908471240457 0.5911627152238539
0.9501062928976672 0.5733429339897765
0.8533504489851206 0.6064868008304725
0.8563331695065364 0.6401454350483451
0.8951507391668188 0.6739623569904782
0.9340759825552991 0.7109553505269208
0.8944148570297364 0.6490029205939335
0.9237729342268747 0.6369167831156248
0.867129829988215 0.6047518610952465
0.8824556039145665 0.625424257466994
0.9407816240443202 0.6714454452473997
0.8418399991934838 0.6864351260154425
0.8093589176562941 0.5302488219257928
0.9027187303060571 0.6081939478679512
0.7694850277143438 0.6733804613301098
0.8368134411858271 0.5845695488321876
0.8884021563908634 0.6249587173878439
0.8620355200051707 0.639390215240758
0.8527534127002495 0.5404048854022482
0.8955264344763155 0.6694238342450438
0.8841747452716374 0.6041968062845045
0.8294891172196304 0.5957925398863845
0.9017546433241489 0.6264883489337255
0.9764962637883241 0.583488595774282
0.7892681070989492 0.6547653181929497
0.8622341486807518 0.6190851917676213
0.9100085732002703 0.6195127956578047
0.8559105684305273 0.6652130576150405
0.8721815215921379 0.5869282048229233
0.9889206415968997 0.7015978249305299
0.9650786843031726 0.5967726922403693
0.8097308593547488 0.6172688071590439
0.7876033637140989 0.6700111343535845
0.8904449821303092 0.6056590734609455
0.8434406499997563 0.6587798467124237
0.8000391761504975 0.6582042698344733
0.8517625318861024 0.6130406809502801
0.8660279550716524 0.6279711858622695
0.8671958436651624 0.6298521482506203
0.7535259839280247 0.6221062397726503
0.8825326174466961 0.6224653923390848
0.8444873492978157 0.6833719874149348
0.8675972171784839 0.6610483882849366
0.8058481428466391 0.6167197543215823
0.8569918814914722 0.6326846078385725
0.8492857990378413 0.6107456300535286
0.8262040172068162 0.6359152654597722
0.8290139173171155 0.6029186471304964
0.9071315294578007 0.5785445259324683
0.9031978327009578 0.6340237540860857
0.7717191302309037 0.5514286514298312
0.8015234089437905 0.6226417813178817
0.8842894110588555 0.5308332236951279
0.9130192429426296 0.6167207442139592
0.856520290760466 0.6701890287214011
0.8141660361242609 0.6281183067070149
0.8090334481800785 0.614311360435312
0.8884713758717916 0.6284747801261186
0.8216817887497746 0.75
0.8475433237981678 0.7039944860386149
0.8704169635116106 0.6147179914615938
